0000.000 (0) Opened log file at time: Sun, 03 Feb 2019 19:05:58 +0000 on http://kunden.euw.de/k1
0000.001 (0) UpdraftPlus WordPress backup plugin (https://updraftplus.com): 2.16.5.24 WP: 4.9.9 PHP: 7.0.33 (cgi-fcgi, Linux dedi856.your-server.de 4.9.0-8-amd64 #1 SMP Debian 4.9.110-3+deb9u5 (2018-09-30) x86_64) MySQL: 5.7.25-1 WPLANG: de_DE_formal Server: Apache safe_mode: 0 max_execution_time: 900 memory_limit: 256M (used: 65.3M | 68M) multisite: N openssl: OpenSSL 1.1.0f  25 May 2017 mcrypt: Y LANG:  ZipArchive::addFile: Y
0000.002 (0) Free space on disk containing Updraft's temporary directory: 3285089.9 MB
0000.003 (0) Tasks: Backup files: 1 (schedule: weekly) Backup DB:  (schedule: weekly)
0000.005 (0) Processed schedules. Combining jobs from identical schedules. Tasks now: Backup files: 1 Backup DB: 1
0000.023 (0) Requesting semaphore lock (fd) (apparently via scheduler: last_scheduled_action_called_at=1548941427, seconds_ago=279331)
0000.026 (0) Set semaphore last lock (fd) time to 2019-02-03 19:05:58
0000.027 (0) Semaphore lock (fd) complete
0000.029 (0) Backup run: resumption=0, nonce=d9806698e8a8, file_nonce=d9806698e8a8 begun at=1549220758 (0s ago), job type=backup
0000.030 (0) Scheduling a resumption (1) after 300 seconds (1549221058) in case this run gets aborted
0000.048 (0) Checking if we have a zip executable available
0000.050 (0) Testing: /usr/bin/zip
0000.052 (0) Output: zip warning: binziptest/test.zip not found or empty
0000.054 (0) Output: adding: binziptest/subdir1/	(in=0) (out=0) (stored 0%)
0000.056 (0) Output: adding: binziptest/subdir1/subdir2/	(in=0) (out=0) (stored 0%)
0000.056 (0) Output: adding: binziptest/subdir1/subdir2/test.html	(in=131) (out=107) (deflated 18%)
0000.057 (0) Output: total bytes=131, compressed=107 -> 18% savings
0000.059 (0) Output: adding: binziptest/subdir1/subdir2/test2.html	(in=138) (out=113) (deflated 18%)
0000.061 (0) Output: total bytes=269, compressed=220 -> 18% savings
0000.078 (0) Working binary zip found: /usr/bin/zip
0000.082 (0) Zip engine: found/will use a binary zip: /usr/bin/zip
0000.082 (0) Creation of backups of directories: beginning
0000.085 (0) Beginning creation of dump of plugins (split every: 400 MB)
0000.263 (0) Total entities for the zip file: 1722 directories, 9491 files (0 skipped as non-modified), 138.6 MB
0000.270 (0) Zip: backup_2019-02-03-2005_K1_Webshop_d9806698e8a8-plugins.zip.tmp: 100 files added (on-disk size: 0 KB)
0000.272 (0) Zip: backup_2019-02-03-2005_K1_Webshop_d9806698e8a8-plugins.zip.tmp: 200 files added (on-disk size: 0 KB)
0000.274 (0) Zip: backup_2019-02-03-2005_K1_Webshop_d9806698e8a8-plugins.zip.tmp: 300 files added (on-disk size: 0 KB)
0000.275 (0) Zip: backup_2019-02-03-2005_K1_Webshop_d9806698e8a8-plugins.zip.tmp: 400 files added (on-disk size: 0 KB)
0000.277 (0) Zip: backup_2019-02-03-2005_K1_Webshop_d9806698e8a8-plugins.zip.tmp: 500 files added (on-disk size: 0 KB)
0000.278 (0) Adding batch to zip file (UpdraftPlus_BinZip): over 500 files added on this batch (8.2 MB, 9491 files batched, 501 (501) added so far); re-opening (prior size: 0 KB)
0001.042 (0) backup_2019-02-03-2005_K1_Webshop_d9806698e8a8-plugins.zip.tmp: size is now: 4.20 MB
0001.045 (0) Zip: backup_2019-02-03-2005_K1_Webshop_d9806698e8a8-plugins.zip.tmp: 600 files added (on-disk size: 4267 KB)
0001.047 (0) Zip: backup_2019-02-03-2005_K1_Webshop_d9806698e8a8-plugins.zip.tmp: 700 files added (on-disk size: 4267 KB)
0001.049 (0) Zip: backup_2019-02-03-2005_K1_Webshop_d9806698e8a8-plugins.zip.tmp: 800 files added (on-disk size: 4267 KB)
0001.051 (0) Zip: backup_2019-02-03-2005_K1_Webshop_d9806698e8a8-plugins.zip.tmp: 900 files added (on-disk size: 4267 KB)
0001.053 (0) Zip: backup_2019-02-03-2005_K1_Webshop_d9806698e8a8-plugins.zip.tmp: 1000 files added (on-disk size: 4267 KB)
0001.054 (0) Adding batch to zip file (UpdraftPlus_BinZip): over 500 files added on this batch (3.9 MB, 9491 files batched, 501 (1002) added so far); re-opening (prior size: 4267 KB)
0001.496 (0) backup_2019-02-03-2005_K1_Webshop_d9806698e8a8-plugins.zip.tmp: size is now: 5.60 MB
0001.549 (0) Zip: backup_2019-02-03-2005_K1_Webshop_d9806698e8a8-plugins.zip.tmp: 1100 files added (on-disk size: 5719.3 KB)
0001.551 (0) Zip: backup_2019-02-03-2005_K1_Webshop_d9806698e8a8-plugins.zip.tmp: 1200 files added (on-disk size: 5719.3 KB)
0001.552 (0) Zip: backup_2019-02-03-2005_K1_Webshop_d9806698e8a8-plugins.zip.tmp: 1300 files added (on-disk size: 5719.3 KB)
0001.554 (0) Zip: backup_2019-02-03-2005_K1_Webshop_d9806698e8a8-plugins.zip.tmp: 1400 files added (on-disk size: 5719.3 KB)
0001.555 (0) Zip: backup_2019-02-03-2005_K1_Webshop_d9806698e8a8-plugins.zip.tmp: 1500 files added (on-disk size: 5719.3 KB)
0001.556 (0) Adding batch to zip file (UpdraftPlus_BinZip): over 500 files added on this batch (6.6 MB, 9491 files batched, 501 (1503) added so far); re-opening (prior size: 5719.3 KB)
0001.948 (0) backup_2019-02-03-2005_K1_Webshop_d9806698e8a8-plugins.zip.tmp: size is now: 9.60 MB
0001.984 (0) Zip: backup_2019-02-03-2005_K1_Webshop_d9806698e8a8-plugins.zip.tmp: 1600 files added (on-disk size: 9815.3 KB)
0001.986 (0) Zip: backup_2019-02-03-2005_K1_Webshop_d9806698e8a8-plugins.zip.tmp: 1700 files added (on-disk size: 9815.3 KB)
0001.987 (0) Zip: backup_2019-02-03-2005_K1_Webshop_d9806698e8a8-plugins.zip.tmp: 1800 files added (on-disk size: 9815.3 KB)
0001.989 (0) Zip: backup_2019-02-03-2005_K1_Webshop_d9806698e8a8-plugins.zip.tmp: 1900 files added (on-disk size: 9815.3 KB)
0001.990 (0) Zip: backup_2019-02-03-2005_K1_Webshop_d9806698e8a8-plugins.zip.tmp: 2000 files added (on-disk size: 9815.3 KB)
0001.992 (0) Adding batch to zip file (UpdraftPlus_BinZip): over 500 files added on this batch (7 MB, 9491 files batched, 501 (2004) added so far); re-opening (prior size: 9815.3 KB)
0002.546 (0) backup_2019-02-03-2005_K1_Webshop_d9806698e8a8-plugins.zip.tmp: size is now: 13.30 MB
0002.584 (0) Zip: backup_2019-02-03-2005_K1_Webshop_d9806698e8a8-plugins.zip.tmp: 2100 files added (on-disk size: 13628.3 KB)
0002.586 (0) Zip: backup_2019-02-03-2005_K1_Webshop_d9806698e8a8-plugins.zip.tmp: 2200 files added (on-disk size: 13628.3 KB)
0002.587 (0) Zip: backup_2019-02-03-2005_K1_Webshop_d9806698e8a8-plugins.zip.tmp: 2300 files added (on-disk size: 13628.3 KB)
0002.589 (0) Zip: backup_2019-02-03-2005_K1_Webshop_d9806698e8a8-plugins.zip.tmp: 2400 files added (on-disk size: 13628.3 KB)
0002.590 (0) Zip: backup_2019-02-03-2005_K1_Webshop_d9806698e8a8-plugins.zip.tmp: 2500 files added (on-disk size: 13628.3 KB)
0002.592 (0) Adding batch to zip file (UpdraftPlus_BinZip): over 500 files added on this batch (3.7 MB, 9491 files batched, 501 (2505) added so far); re-opening (prior size: 13628.3 KB)
0003.032 (0) Zip: backup_2019-02-03-2005_K1_Webshop_d9806698e8a8-plugins.zip.tmp: 2600 files added (on-disk size: 15148.7 KB)
0003.034 (0) Zip: backup_2019-02-03-2005_K1_Webshop_d9806698e8a8-plugins.zip.tmp: 2700 files added (on-disk size: 15148.7 KB)
0003.036 (0) Zip: backup_2019-02-03-2005_K1_Webshop_d9806698e8a8-plugins.zip.tmp: 2800 files added (on-disk size: 15148.7 KB)
0003.038 (0) Zip: backup_2019-02-03-2005_K1_Webshop_d9806698e8a8-plugins.zip.tmp: 2900 files added (on-disk size: 15148.7 KB)
0003.039 (0) Zip: backup_2019-02-03-2005_K1_Webshop_d9806698e8a8-plugins.zip.tmp: 3000 files added (on-disk size: 15148.7 KB)
0003.041 (0) Adding batch to zip file (UpdraftPlus_BinZip): over 500 files added on this batch (1.8 MB, 9491 files batched, 501 (3006) added so far); re-opening (prior size: 15148.7 KB)
0003.574 (0) Zip: backup_2019-02-03-2005_K1_Webshop_d9806698e8a8-plugins.zip.tmp: 3100 files added (on-disk size: 15733.6 KB)
0003.576 (0) Zip: backup_2019-02-03-2005_K1_Webshop_d9806698e8a8-plugins.zip.tmp: 3200 files added (on-disk size: 15733.6 KB)
0003.578 (0) Zip: backup_2019-02-03-2005_K1_Webshop_d9806698e8a8-plugins.zip.tmp: 3300 files added (on-disk size: 15733.6 KB)
0003.580 (0) Zip: backup_2019-02-03-2005_K1_Webshop_d9806698e8a8-plugins.zip.tmp: 3400 files added (on-disk size: 15733.6 KB)
0003.582 (0) Zip: backup_2019-02-03-2005_K1_Webshop_d9806698e8a8-plugins.zip.tmp: 3500 files added (on-disk size: 15733.6 KB)
0003.583 (0) Adding batch to zip file (UpdraftPlus_BinZip): over 500 files added on this batch (10.4 MB, 9491 files batched, 501 (3507) added so far); re-opening (prior size: 15733.6 KB)
0004.191 (0) Zip: backup_2019-02-03-2005_K1_Webshop_d9806698e8a8-plugins.zip.tmp: 3600 files added (on-disk size: 17866.3 KB)
0004.193 (0) Zip: backup_2019-02-03-2005_K1_Webshop_d9806698e8a8-plugins.zip.tmp: 3700 files added (on-disk size: 17866.3 KB)
0004.194 (0) Zip: backup_2019-02-03-2005_K1_Webshop_d9806698e8a8-plugins.zip.tmp: 3800 files added (on-disk size: 17866.3 KB)
0004.197 (0) Zip: backup_2019-02-03-2005_K1_Webshop_d9806698e8a8-plugins.zip.tmp: 3900 files added (on-disk size: 17866.3 KB)
0004.198 (0) Zip: backup_2019-02-03-2005_K1_Webshop_d9806698e8a8-plugins.zip.tmp: 4000 files added (on-disk size: 17866.3 KB)
0004.199 (0) Adding batch to zip file (UpdraftPlus_BinZip): over 500 files added on this batch (6.3 MB, 9491 files batched, 501 (4008) added so far); re-opening (prior size: 17866.3 KB)
0004.757 (0) Zip: backup_2019-02-03-2005_K1_Webshop_d9806698e8a8-plugins.zip.tmp: 4100 files added (on-disk size: 20006.8 KB)
0004.759 (0) Zip: backup_2019-02-03-2005_K1_Webshop_d9806698e8a8-plugins.zip.tmp: 4200 files added (on-disk size: 20006.8 KB)
0004.762 (0) Zip: backup_2019-02-03-2005_K1_Webshop_d9806698e8a8-plugins.zip.tmp: 4300 files added (on-disk size: 20006.8 KB)
0004.763 (0) Zip: backup_2019-02-03-2005_K1_Webshop_d9806698e8a8-plugins.zip.tmp: 4400 files added (on-disk size: 20006.8 KB)
0004.766 (0) Zip: backup_2019-02-03-2005_K1_Webshop_d9806698e8a8-plugins.zip.tmp: 4500 files added (on-disk size: 20006.8 KB)
0004.767 (0) Adding batch to zip file (UpdraftPlus_BinZip): over 500 files added on this batch (2.2 MB, 9491 files batched, 501 (4509) added so far); re-opening (prior size: 20006.8 KB)
0005.324 (0) Zip: backup_2019-02-03-2005_K1_Webshop_d9806698e8a8-plugins.zip.tmp: 4600 files added (on-disk size: 21237.3 KB)
0005.326 (0) Zip: backup_2019-02-03-2005_K1_Webshop_d9806698e8a8-plugins.zip.tmp: 4700 files added (on-disk size: 21237.3 KB)
0005.327 (0) Zip: backup_2019-02-03-2005_K1_Webshop_d9806698e8a8-plugins.zip.tmp: 4800 files added (on-disk size: 21237.3 KB)
0005.329 (0) Zip: backup_2019-02-03-2005_K1_Webshop_d9806698e8a8-plugins.zip.tmp: 4900 files added (on-disk size: 21237.3 KB)
0005.331 (0) Zip: backup_2019-02-03-2005_K1_Webshop_d9806698e8a8-plugins.zip.tmp: 5000 files added (on-disk size: 21237.3 KB)
0005.333 (0) Adding batch to zip file (UpdraftPlus_BinZip): over 500 files added on this batch (11.6 MB, 9491 files batched, 501 (5010) added so far); re-opening (prior size: 21237.3 KB)
0007.441 (0) backup_2019-02-03-2005_K1_Webshop_d9806698e8a8-plugins.zip.tmp: size is now: 25.30 MB
0007.484 (0) Zip: backup_2019-02-03-2005_K1_Webshop_d9806698e8a8-plugins.zip.tmp: 5100 files added (on-disk size: 25942.9 KB)
0007.486 (0) Zip: backup_2019-02-03-2005_K1_Webshop_d9806698e8a8-plugins.zip.tmp: 5200 files added (on-disk size: 25942.9 KB)
0007.487 (0) Zip: backup_2019-02-03-2005_K1_Webshop_d9806698e8a8-plugins.zip.tmp: 5300 files added (on-disk size: 25942.9 KB)
0007.489 (0) Zip: backup_2019-02-03-2005_K1_Webshop_d9806698e8a8-plugins.zip.tmp: 5400 files added (on-disk size: 25942.9 KB)
0007.491 (0) Zip: backup_2019-02-03-2005_K1_Webshop_d9806698e8a8-plugins.zip.tmp: 5500 files added (on-disk size: 25942.9 KB)
0007.492 (0) Adding batch to zip file (UpdraftPlus_BinZip): over 500 files added on this batch (6.6 MB, 9491 files batched, 501 (5511) added so far); re-opening (prior size: 25942.9 KB)
0008.148 (0) Zip: backup_2019-02-03-2005_K1_Webshop_d9806698e8a8-plugins.zip.tmp: 5600 files added (on-disk size: 27995.3 KB)
0008.151 (0) Zip: backup_2019-02-03-2005_K1_Webshop_d9806698e8a8-plugins.zip.tmp: 5700 files added (on-disk size: 27995.3 KB)
0008.153 (0) Zip: backup_2019-02-03-2005_K1_Webshop_d9806698e8a8-plugins.zip.tmp: 5800 files added (on-disk size: 27995.3 KB)
0008.154 (0) Zip: backup_2019-02-03-2005_K1_Webshop_d9806698e8a8-plugins.zip.tmp: 5900 files added (on-disk size: 27995.3 KB)
0008.155 (0) Zip: backup_2019-02-03-2005_K1_Webshop_d9806698e8a8-plugins.zip.tmp: 6000 files added (on-disk size: 27995.3 KB)
0008.157 (0) Adding batch to zip file (UpdraftPlus_BinZip): over 500 files added on this batch (12 MB, 9491 files batched, 501 (6012) added so far); re-opening (prior size: 27995.3 KB)
0009.015 (0) Zip: backup_2019-02-03-2005_K1_Webshop_d9806698e8a8-plugins.zip.tmp: 6100 files added (on-disk size: 31255.5 KB)
0009.017 (0) Zip: backup_2019-02-03-2005_K1_Webshop_d9806698e8a8-plugins.zip.tmp: 6200 files added (on-disk size: 31255.5 KB)
0009.018 (0) Zip: backup_2019-02-03-2005_K1_Webshop_d9806698e8a8-plugins.zip.tmp: 6300 files added (on-disk size: 31255.5 KB)
0009.020 (0) Zip: backup_2019-02-03-2005_K1_Webshop_d9806698e8a8-plugins.zip.tmp: 6400 files added (on-disk size: 31255.5 KB)
0009.022 (0) Zip: backup_2019-02-03-2005_K1_Webshop_d9806698e8a8-plugins.zip.tmp: 6500 files added (on-disk size: 31255.5 KB)
0009.023 (0) Adding batch to zip file (UpdraftPlus_BinZip): over 500 files added on this batch (5.1 MB, 9491 files batched, 501 (6513) added so far); re-opening (prior size: 31255.5 KB)
0009.497 (0) Zip: backup_2019-02-03-2005_K1_Webshop_d9806698e8a8-plugins.zip.tmp: 6600 files added (on-disk size: 32636.9 KB)
0009.500 (0) Zip: backup_2019-02-03-2005_K1_Webshop_d9806698e8a8-plugins.zip.tmp: 6700 files added (on-disk size: 32636.9 KB)
0009.503 (0) Zip: backup_2019-02-03-2005_K1_Webshop_d9806698e8a8-plugins.zip.tmp: 6800 files added (on-disk size: 32636.9 KB)
0009.505 (0) Zip: backup_2019-02-03-2005_K1_Webshop_d9806698e8a8-plugins.zip.tmp: 6900 files added (on-disk size: 32636.9 KB)
0009.507 (0) Zip: backup_2019-02-03-2005_K1_Webshop_d9806698e8a8-plugins.zip.tmp: 7000 files added (on-disk size: 32636.9 KB)
0009.509 (0) Adding batch to zip file (UpdraftPlus_BinZip): over 500 files added on this batch (4 MB, 9491 files batched, 501 (7014) added so far); re-opening (prior size: 32636.9 KB)
0009.906 (0) Zip: backup_2019-02-03-2005_K1_Webshop_d9806698e8a8-plugins.zip.tmp: 7100 files added (on-disk size: 33910.9 KB)
0009.908 (0) Zip: backup_2019-02-03-2005_K1_Webshop_d9806698e8a8-plugins.zip.tmp: 7200 files added (on-disk size: 33910.9 KB)
0009.910 (0) Zip: backup_2019-02-03-2005_K1_Webshop_d9806698e8a8-plugins.zip.tmp: 7300 files added (on-disk size: 33910.9 KB)
0009.912 (0) Zip: backup_2019-02-03-2005_K1_Webshop_d9806698e8a8-plugins.zip.tmp: 7400 files added (on-disk size: 33910.9 KB)
0009.914 (0) Zip: backup_2019-02-03-2005_K1_Webshop_d9806698e8a8-plugins.zip.tmp: 7500 files added (on-disk size: 33910.9 KB)
0009.914 (0) Adding batch to zip file (UpdraftPlus_BinZip): over 500 files added on this batch (11.6 MB, 9491 files batched, 501 (7515) added so far); re-opening (prior size: 33910.9 KB)
0010.762 (0) Zip: backup_2019-02-03-2005_K1_Webshop_d9806698e8a8-plugins.zip.tmp: 7600 files added (on-disk size: 39674.3 KB)
0010.763 (0) Zip: backup_2019-02-03-2005_K1_Webshop_d9806698e8a8-plugins.zip.tmp: 7700 files added (on-disk size: 39674.3 KB)
0010.765 (0) Zip: backup_2019-02-03-2005_K1_Webshop_d9806698e8a8-plugins.zip.tmp: 7800 files added (on-disk size: 39674.3 KB)
0010.767 (0) Zip: backup_2019-02-03-2005_K1_Webshop_d9806698e8a8-plugins.zip.tmp: 7900 files added (on-disk size: 39674.3 KB)
0010.768 (0) Zip: backup_2019-02-03-2005_K1_Webshop_d9806698e8a8-plugins.zip.tmp: 8000 files added (on-disk size: 39674.3 KB)
0010.769 (0) Adding batch to zip file (UpdraftPlus_BinZip): over 500 files added on this batch (5.3 MB, 9491 files batched, 501 (8016) added so far); re-opening (prior size: 39674.3 KB)
0011.273 (0) Zip: backup_2019-02-03-2005_K1_Webshop_d9806698e8a8-plugins.zip.tmp: 8100 files added (on-disk size: 41272.8 KB)
0011.275 (0) Zip: backup_2019-02-03-2005_K1_Webshop_d9806698e8a8-plugins.zip.tmp: 8200 files added (on-disk size: 41272.8 KB)
0011.277 (0) Zip: backup_2019-02-03-2005_K1_Webshop_d9806698e8a8-plugins.zip.tmp: 8300 files added (on-disk size: 41272.8 KB)
0011.278 (0) Zip: backup_2019-02-03-2005_K1_Webshop_d9806698e8a8-plugins.zip.tmp: 8400 files added (on-disk size: 41272.8 KB)
0011.280 (0) Zip: backup_2019-02-03-2005_K1_Webshop_d9806698e8a8-plugins.zip.tmp: 8500 files added (on-disk size: 41272.8 KB)
0011.282 (0) Adding batch to zip file (UpdraftPlus_BinZip): over 500 files added on this batch (17.6 MB, 9491 files batched, 501 (8517) added so far); re-opening (prior size: 41272.8 KB)
0012.664 (0) Zip: backup_2019-02-03-2005_K1_Webshop_d9806698e8a8-plugins.zip.tmp: 8600 files added (on-disk size: 48714.1 KB)
0012.666 (0) Zip: backup_2019-02-03-2005_K1_Webshop_d9806698e8a8-plugins.zip.tmp: 8700 files added (on-disk size: 48714.1 KB)
0012.667 (0) Zip: backup_2019-02-03-2005_K1_Webshop_d9806698e8a8-plugins.zip.tmp: 8800 files added (on-disk size: 48714.1 KB)
0012.670 (0) Zip: backup_2019-02-03-2005_K1_Webshop_d9806698e8a8-plugins.zip.tmp: 8900 files added (on-disk size: 48714.1 KB)
0012.671 (0) Zip: backup_2019-02-03-2005_K1_Webshop_d9806698e8a8-plugins.zip.tmp: 9000 files added (on-disk size: 48714.1 KB)
0012.673 (0) Adding batch to zip file (UpdraftPlus_BinZip): over 500 files added on this batch (11 MB, 9491 files batched, 501 (9018) added so far); re-opening (prior size: 48714.1 KB)
0013.467 (0) Zip: backup_2019-02-03-2005_K1_Webshop_d9806698e8a8-plugins.zip.tmp: 9100 files added (on-disk size: 51936.5 KB)
0013.470 (0) Zip: backup_2019-02-03-2005_K1_Webshop_d9806698e8a8-plugins.zip.tmp: 9200 files added (on-disk size: 51936.5 KB)
0013.472 (0) Zip: backup_2019-02-03-2005_K1_Webshop_d9806698e8a8-plugins.zip.tmp: 9300 files added (on-disk size: 51936.5 KB)
0013.474 (0) Zip: backup_2019-02-03-2005_K1_Webshop_d9806698e8a8-plugins.zip.tmp: 9400 files added (on-disk size: 51936.5 KB)
0014.329 (0) Created plugins zip (0) - 53221.9 KB in 14.2 s (3736.5 KB/s) (sha1: 80deae930c1a2136513d2368a40a5bbe7336309f, sha256: e52db211e9875c4d9e8b0bc1cad16ee3c4d305ad4c679b3c641abce4a42f9205)
0014.333 (0) Beginning creation of dump of themes (split every: 400 MB)
0014.394 (0) Total entities for the zip file: 216 directories, 1069 files (0 skipped as non-modified), 28.2 MB
0014.399 (0) Zip: backup_2019-02-03-2005_K1_Webshop_d9806698e8a8-themes.zip.tmp: 100 files added (on-disk size: 0 KB)
0014.402 (0) Zip: backup_2019-02-03-2005_K1_Webshop_d9806698e8a8-themes.zip.tmp: 200 files added (on-disk size: 0 KB)
0014.404 (0) Zip: backup_2019-02-03-2005_K1_Webshop_d9806698e8a8-themes.zip.tmp: 300 files added (on-disk size: 0 KB)
0014.406 (0) Zip: backup_2019-02-03-2005_K1_Webshop_d9806698e8a8-themes.zip.tmp: 400 files added (on-disk size: 0 KB)
0014.408 (0) Zip: backup_2019-02-03-2005_K1_Webshop_d9806698e8a8-themes.zip.tmp: 500 files added (on-disk size: 0 KB)
0014.409 (0) Adding batch to zip file (UpdraftPlus_BinZip): over 500 files added on this batch (9.3 MB, 1069 files batched, 501 (501) added so far); re-opening (prior size: 0 KB)
0015.226 (0) backup_2019-02-03-2005_K1_Webshop_d9806698e8a8-themes.zip.tmp: size is now: 2.90 MB
0015.265 (0) Zip: backup_2019-02-03-2005_K1_Webshop_d9806698e8a8-themes.zip.tmp: 600 files added (on-disk size: 2947.1 KB)
0015.267 (0) Zip: backup_2019-02-03-2005_K1_Webshop_d9806698e8a8-themes.zip.tmp: 700 files added (on-disk size: 2947.1 KB)
0015.269 (0) Zip: backup_2019-02-03-2005_K1_Webshop_d9806698e8a8-themes.zip.tmp: 800 files added (on-disk size: 2947.1 KB)
0015.271 (0) Zip: backup_2019-02-03-2005_K1_Webshop_d9806698e8a8-themes.zip.tmp: 900 files added (on-disk size: 2947.1 KB)
0015.274 (0) Zip: backup_2019-02-03-2005_K1_Webshop_d9806698e8a8-themes.zip.tmp: 1000 files added (on-disk size: 2947.1 KB)
0015.274 (0) Adding batch to zip file (UpdraftPlus_BinZip): over 500 files added on this batch (13.6 MB, 1069 files batched, 501 (1002) added so far); re-opening (prior size: 2947.1 KB)
0016.665 (0) backup_2019-02-03-2005_K1_Webshop_d9806698e8a8-themes.zip.tmp: size is now: 7.10 MB
0017.234 (0) Created themes zip (0) - 8486.3 KB in 2.9 s (2925.8 KB/s) (sha1: 38817b9fd501c418d19d93538eab7a527cde3fa2, sha256: b71756d4e57524bdbd97455e047cdd4245bd8a8afeed16081f3e50eaa42f2e1d)
0017.237 (0) Exclusion option setting (uploads): backup*,*backups,backwpup*,wp-clone,snapshots
0017.237 (0) Looking for candidates to backup in: /usr/www/users/euwlog/kunden/k1/wp-content/uploads
0017.238 (0) finding files: wtfdivi: adding to list (1)
0017.239 (0) finding files: 2019: adding to list (2)
0017.240 (0) finding files: woocommerce_uploads: adding to list (3)
0017.241 (0) finding files: 2018: adding to list (4)
0017.241 (0) finding files: GeoLite2-Country.mmdb: adding to list (5)
0017.242 (0) finding files: et_temp: adding to list (6)
0017.242 (0) finding files: sacache: adding to list (7)
0017.243 (0) finding files: wc-logs: adding to list (8)
0017.244 (0) Beginning creation of dump of uploads (split every: 400 MB)
0017.248 (0) Total entities for the zip file: 21 directories, 377 files (0 skipped as non-modified), 18.7 MB
0017.250 (0) Zip: backup_2019-02-03-2005_K1_Webshop_d9806698e8a8-uploads.zip.tmp: 100 files added (on-disk size: 0 KB)
0017.251 (0) Zip: backup_2019-02-03-2005_K1_Webshop_d9806698e8a8-uploads.zip.tmp: 200 files added (on-disk size: 0 KB)
0017.253 (0) Zip: backup_2019-02-03-2005_K1_Webshop_d9806698e8a8-uploads.zip.tmp: 300 files added (on-disk size: 0 KB)
0017.952 (0) backup_2019-02-03-2005_K1_Webshop_d9806698e8a8-uploads.zip.tmp: size is now: 17.10 MB
0018.121 (0) Created uploads zip (0) - 17546.1 KB in 0.9 s (20021.2 KB/s) (sha1: 1866f737af5d360a2f485bdea89ed71884e59038, sha256: e5516a466aef319b35b3138a2a52124d0d0de02e10bfe1bad66d66532ffc0e48)
0018.122 (0) No backup of wpcore: excluded by user's options
0018.124 (0) Beginning backup of other directories found in the content directory (index: 0)
0018.125 (0) Exclusion option setting (others): upgrade,cache,updraft,backup*,*backups,mysql.sql,debug.log
0018.126 (0) Looking for candidates to backup in: /usr/www/users/euwlog/kunden/k1/wp-content
0018.127 (0) finding files: plugins: skipping: this is the plugins directory
0018.128 (0) finding files: aiowps_backups: skipping: excluded by options (glob)
0018.128 (0) finding files: wflogs: adding to list (1)
0018.129 (0) finding files: uploads: skipping: this is the uploads directory
0018.130 (0) finding files: themes: skipping: this is the themes directory
0018.130 (0) finding files: cache: skipping: excluded by options
0018.131 (0) finding files: updraft: skipping: this is the updraft directory
0018.132 (0) finding files: languages: adding to list (2)
0018.133 (0) finding files: upgrade: skipping: excluded by options
0018.133 (0) finding files: index.php: adding to list (3)
0018.137 (0) Total entities for the zip file: 4 directories, 93 files (0 skipped as non-modified), 10.1 MB
0019.006 (0) backup_2019-02-03-2005_K1_Webshop_d9806698e8a8-others.zip.tmp: size is now: 3.00 MB
0019.090 (0) Created others zip (0) - 3062.9 KB in 1 s (3203.6 KB/s) (sha1: 2e7ce473bc80874d1620b3644b34e6e5ee5d833a, sha256: cde735ee5c7e9bee1cdd2d4f68dd3163936520ae6e655d1664fcebc3cf8b836f)
0019.092 (0) No backup of more: excluded by user's options
0019.095 (0) Saving backup status to database (elements: 8)
0019.097 (0) Beginning creation of database dump (WordPress DB)
0019.098 (0) Testing potential mysqldump binary: /usr/bin/mysqldump
0019.136 (0) Output: /*!40103 SET @OLD_TIME_ZONE=@@TIME_ZONE */;\n/*!40103 SET TIME_ZONE='+00:00' */;\n/*!40014 SET @OLD_UNIQUE_CHECKS=@@UNIQUE_CHECKS, UNIQUE_CHECKS=0 */;\n/*!40014 SET @OLD_FOREIGN_KEY_CHECKS=@@FOREIGN_KEY_CHECKS, FOREIGN_KEY_CHECKS=0 */;\n/*!40101 SET @OLD_SQL_MODE=@@SQL_MODE, SQL_MODE='NO_AUTO_VALUE_ON_ZERO' */;\n/*!40111 SET @OLD_SQL_NOTES=@@SQL_NOTES, SQL_NOTES=0 */;\nDROP TABLE IF EXISTS `sc_options`;\n/*!40101 SET @saved_cs_client     = @@character_set_client */;\n/*!40101 SET character_set_client = utf8 */;\nCRE (truncated - 1192 bytes total)
0019.138 (0) Working binary mysqldump found: /usr/bin/mysqldump
0019.142 (0) Table sc_options: Total expected rows (approximate): 911
0019.154 (0) Table sc_options: Total rows added: 925 in 0.01 seconds
0019.155 (0) Table sc_options: finishing file (backup_2019-02-03-2005_K1_Webshop_d9806698e8a8-db-table-sc_options.table.gz - 55.9 KB)
0019.158 (0) Table sc_users: Total expected rows (approximate): 0
0019.159 (0) Table sc_users: Total rows added: 2 in 0.00 seconds
0019.160 (0) Table sc_users: finishing file (backup_2019-02-03-2005_K1_Webshop_d9806698e8a8-db-table-sc_users.table.gz - 0.6 KB)
0019.162 (0) Table sc_usermeta: Total expected rows (approximate): 60
0019.164 (0) Table sc_usermeta: Total rows added: 63 in 0.00 seconds
0019.165 (0) Table sc_usermeta: finishing file (backup_2019-02-03-2005_K1_Webshop_d9806698e8a8-db-table-sc_usermeta.table.gz - 2.2 KB)
0019.167 (0) Table sc_commentmeta: Total expected rows (approximate): 0
0019.169 (0) Table sc_commentmeta: Total rows added: 0 in 0.00 seconds
0019.169 (0) Table sc_commentmeta: finishing file (backup_2019-02-03-2005_K1_Webshop_d9806698e8a8-db-table-sc_commentmeta.table.gz - 0.4 KB)
0019.172 (0) Table sc_comments: Total expected rows (approximate): 0
0019.173 (0) Table sc_comments: Total rows added: 0 in 0.00 seconds
0019.174 (0) Table sc_comments: finishing file (backup_2019-02-03-2005_K1_Webshop_d9806698e8a8-db-table-sc_comments.table.gz - 0.5 KB)
0019.176 (0) Table sc_links: Total expected rows (approximate): 0
0019.177 (0) Table sc_links: Total rows added: 0 in 0.00 seconds
0019.178 (0) Table sc_links: finishing file (backup_2019-02-03-2005_K1_Webshop_d9806698e8a8-db-table-sc_links.table.gz - 0.4 KB)
0019.181 (0) Table sc_postmeta: Total expected rows (approximate): 19927
0019.271 (0) Table sc_postmeta: binary mysqldump finished (writes: 32) in 0.09 seconds
0019.273 (0) Table sc_postmeta: finishing file (backup_2019-02-03-2005_K1_Webshop_d9806698e8a8-db-table-sc_postmeta.table.gz - 122.5 KB)
0019.276 (0) Table sc_posts: Total expected rows (approximate): 496
0019.304 (0) Table sc_posts: Total rows added: 559 in 0.03 seconds
0019.306 (0) Table sc_posts: finishing file (backup_2019-02-03-2005_K1_Webshop_d9806698e8a8-db-table-sc_posts.table.gz - 127.2 KB)
0019.309 (0) Table sc_term_relationships: Total expected rows (approximate): 174
0019.310 (0) Table sc_term_relationships: Total rows added: 175 in 0.00 seconds
0019.311 (0) Table sc_term_relationships: finishing file (backup_2019-02-03-2005_K1_Webshop_d9806698e8a8-db-table-sc_term_relationships.table.gz - 0.9 KB)
0019.314 (0) Table sc_term_taxonomy: Total expected rows (approximate): 59
0019.315 (0) Table sc_term_taxonomy: Total rows added: 67 in 0.00 seconds
0019.317 (0) Table sc_term_taxonomy: finishing file (backup_2019-02-03-2005_K1_Webshop_d9806698e8a8-db-table-sc_term_taxonomy.table.gz - 0.9 KB)
0019.319 (0) Table sc_termmeta: Total expected rows (approximate): 31
0019.321 (0) Table sc_termmeta: Total rows added: 31 in 0.00 seconds
0019.322 (0) Table sc_termmeta: finishing file (backup_2019-02-03-2005_K1_Webshop_d9806698e8a8-db-table-sc_termmeta.table.gz - 0.6 KB)
0019.324 (0) Table sc_terms: Total expected rows (approximate): 59
0019.326 (0) Table sc_terms: Total rows added: 67 in 0.00 seconds
0019.326 (0) Table sc_terms: finishing file (backup_2019-02-03-2005_K1_Webshop_d9806698e8a8-db-table-sc_terms.table.gz - 1.2 KB)
0019.329 (0) Table sc_woocommerce_order_itemmeta: Total expected rows (approximate): 0
0019.330 (0) Table sc_woocommerce_order_itemmeta: Total rows added: 0 in 0.00 seconds
0019.331 (0) Table sc_woocommerce_order_itemmeta: finishing file (backup_2019-02-03-2005_K1_Webshop_d9806698e8a8-db-table-sc_woocommerce_order_itemmeta.table.gz - 0.4 KB)
0019.334 (0) Table sc_woocommerce_payment_tokenmeta: Total expected rows (approximate): 0
0019.335 (0) Table sc_woocommerce_payment_tokenmeta: Total rows added: 0 in 0.00 seconds
0019.336 (0) Table sc_woocommerce_payment_tokenmeta: finishing file (backup_2019-02-03-2005_K1_Webshop_d9806698e8a8-db-table-sc_woocommerce_payment_tokenmeta.table.gz - 0.4 KB)
0019.338 (0) Table sc_aiowps_events: Total expected rows (approximate): 0
0019.339 (0) Table sc_aiowps_events: Total rows added: 0 in 0.00 seconds
0019.340 (0) Table sc_aiowps_events: finishing file (backup_2019-02-03-2005_K1_Webshop_d9806698e8a8-db-table-sc_aiowps_events.table.gz - 0.4 KB)
0019.342 (0) Table sc_aiowps_failed_logins: Total expected rows (approximate): 0
0019.344 (0) Table sc_aiowps_failed_logins: Total rows added: 0 in 0.00 seconds
0019.345 (0) Table sc_aiowps_failed_logins: finishing file (backup_2019-02-03-2005_K1_Webshop_d9806698e8a8-db-table-sc_aiowps_failed_logins.table.gz - 0.4 KB)
0019.347 (0) Table sc_aiowps_global_meta: Total expected rows (approximate): 0
0019.348 (0) Table sc_aiowps_global_meta: Total rows added: 0 in 0.00 seconds
0019.349 (0) Table sc_aiowps_global_meta: finishing file (backup_2019-02-03-2005_K1_Webshop_d9806698e8a8-db-table-sc_aiowps_global_meta.table.gz - 0.4 KB)
0019.351 (0) Table sc_aiowps_login_activity: Total expected rows (approximate): 70
0019.353 (0) Table sc_aiowps_login_activity: Total rows added: 82 in 0.00 seconds
0019.354 (0) Table sc_aiowps_login_activity: finishing file (backup_2019-02-03-2005_K1_Webshop_d9806698e8a8-db-table-sc_aiowps_login_activity.table.gz - 1.6 KB)
0019.357 (0) Table sc_aiowps_login_lockdown: Total expected rows (approximate): 0
0019.358 (0) Table sc_aiowps_login_lockdown: Total rows added: 0 in 0.00 seconds
0019.358 (0) Table sc_aiowps_login_lockdown: finishing file (backup_2019-02-03-2005_K1_Webshop_d9806698e8a8-db-table-sc_aiowps_login_lockdown.table.gz - 0.4 KB)
0019.361 (0) Table sc_aiowps_permanent_block: Total expected rows (approximate): 0
0019.362 (0) Table sc_aiowps_permanent_block: Total rows added: 0 in 0.00 seconds
0019.362 (0) Table sc_aiowps_permanent_block: finishing file (backup_2019-02-03-2005_K1_Webshop_d9806698e8a8-db-table-sc_aiowps_permanent_block.table.gz - 0.4 KB)
0019.365 (0) Table sc_duplicator_packages: Total expected rows (approximate): 1
0019.366 (0) Table sc_duplicator_packages: Total rows added: 1 in 0.00 seconds
0019.368 (0) Table sc_duplicator_packages: finishing file (backup_2019-02-03-2005_K1_Webshop_d9806698e8a8-db-table-sc_duplicator_packages.table.gz - 1.5 KB)
0019.370 (0) Table sc_sm_advanced_search_temp: Total expected rows (approximate): 0
0019.371 (0) Table sc_sm_advanced_search_temp: Total rows added: 0 in 0.00 seconds
0019.372 (0) Table sc_sm_advanced_search_temp: finishing file (backup_2019-02-03-2005_K1_Webshop_d9806698e8a8-db-table-sc_sm_advanced_search_temp.table.gz - 0.3 KB)
0019.374 (0) Table sc_smake_products: Total expected rows (approximate): 0
0019.375 (0) Table sc_smake_products: Total rows added: 0 in 0.00 seconds
0019.376 (0) Table sc_smake_products: finishing file (backup_2019-02-03-2005_K1_Webshop_d9806698e8a8-db-table-sc_smake_products.table.gz - 0.3 KB)
0019.378 (0) Table sc_smush_dir_images: Total expected rows (approximate): 0
0019.379 (0) Table sc_smush_dir_images: Total rows added: 0 in 0.00 seconds
0019.380 (0) Table sc_smush_dir_images: finishing file (backup_2019-02-03-2005_K1_Webshop_d9806698e8a8-db-table-sc_smush_dir_images.table.gz - 0.4 KB)
0019.383 (0) Table sc_wc_download_log: Total expected rows (approximate): 0
0019.384 (0) Table sc_wc_download_log: Total rows added: 0 in 0.00 seconds
0019.385 (0) Table sc_wc_download_log: finishing file (backup_2019-02-03-2005_K1_Webshop_d9806698e8a8-db-table-sc_wc_download_log.table.gz - 0.4 KB)
0019.387 (0) Table sc_wc_webhooks: Total expected rows (approximate): 0
0019.389 (0) Table sc_wc_webhooks: Total rows added: 0 in 0.00 seconds
0019.389 (0) Table sc_wc_webhooks: finishing file (backup_2019-02-03-2005_K1_Webshop_d9806698e8a8-db-table-sc_wc_webhooks.table.gz - 0.5 KB)
0019.392 (0) Table sc_wfBadLeechers: Total expected rows (approximate): 0
0019.393 (0) Table sc_wfBadLeechers: Total rows added: 0 in 0.00 seconds
0019.394 (0) Table sc_wfBadLeechers: finishing file (backup_2019-02-03-2005_K1_Webshop_d9806698e8a8-db-table-sc_wfBadLeechers.table.gz - 0.3 KB)
0019.397 (0) Table sc_wfBlockedCommentLog: Total expected rows (approximate): 0
0019.398 (0) Table sc_wfBlockedCommentLog: Total rows added: 0 in 0.00 seconds
0019.398 (0) Table sc_wfBlockedCommentLog: finishing file (backup_2019-02-03-2005_K1_Webshop_d9806698e8a8-db-table-sc_wfBlockedCommentLog.table.gz - 0.3 KB)
0019.402 (0) Table sc_wfBlockedIPLog: Total expected rows (approximate): 0
0019.403 (0) Table sc_wfBlockedIPLog: Total rows added: 0 in 0.00 seconds
0019.404 (0) Table sc_wfBlockedIPLog: finishing file (backup_2019-02-03-2005_K1_Webshop_d9806698e8a8-db-table-sc_wfBlockedIPLog.table.gz - 0.3 KB)
0019.406 (0) Table sc_wfBlocks: Total expected rows (approximate): 0
0019.408 (0) Table sc_wfBlocks: Total rows added: 0 in 0.00 seconds
0019.409 (0) Table sc_wfBlocks: finishing file (backup_2019-02-03-2005_K1_Webshop_d9806698e8a8-db-table-sc_wfBlocks.table.gz - 0.4 KB)
0019.411 (0) Table sc_wfBlocksAdv: Total expected rows (approximate): 0
0019.412 (0) Table sc_wfBlocksAdv: Total rows added: 0 in 0.00 seconds
0019.413 (0) Table sc_wfBlocksAdv: finishing file (backup_2019-02-03-2005_K1_Webshop_d9806698e8a8-db-table-sc_wfBlocksAdv.table.gz - 0.3 KB)
0019.415 (0) Table sc_wfConfig: Total expected rows (approximate): 181
0019.435 (0) Table sc_wfConfig: Total rows added: 181 in 0.02 seconds
0019.445 (0) Table sc_wfConfig: finishing file (backup_2019-02-03-2005_K1_Webshop_d9806698e8a8-db-table-sc_wfConfig.table.gz - 3.9 KB)
0019.448 (0) Table sc_wfCrawlers: Total expected rows (approximate): 0
0019.449 (0) Table sc_wfCrawlers: Total rows added: 0 in 0.00 seconds
0019.450 (0) Table sc_wfCrawlers: finishing file (backup_2019-02-03-2005_K1_Webshop_d9806698e8a8-db-table-sc_wfCrawlers.table.gz - 0.3 KB)
0019.453 (0) Table sc_wfFileMods: Total expected rows (approximate): 0
0019.454 (0) Table sc_wfFileMods: Total rows added: 0 in 0.00 seconds
0019.455 (0) Table sc_wfFileMods: finishing file (backup_2019-02-03-2005_K1_Webshop_d9806698e8a8-db-table-sc_wfFileMods.table.gz - 0.4 KB)
0019.457 (0) Table sc_wfHits: Total expected rows (approximate): 1
0019.459 (0) Table sc_wfHits: Total rows added: 1 in 0.00 seconds
0019.460 (0) Table sc_wfHits: finishing file (backup_2019-02-03-2005_K1_Webshop_d9806698e8a8-db-table-sc_wfHits.table.gz - 0.7 KB)
0019.462 (0) Table sc_wfHoover: Total expected rows (approximate): 0
0019.463 (0) Table sc_wfHoover: Total rows added: 0 in 0.00 seconds
0019.464 (0) Table sc_wfHoover: finishing file (backup_2019-02-03-2005_K1_Webshop_d9806698e8a8-db-table-sc_wfHoover.table.gz - 0.3 KB)
0019.466 (0) Table sc_wfIssues: Total expected rows (approximate): 0
0019.467 (0) Table sc_wfIssues: Total rows added: 0 in 0.00 seconds
0019.468 (0) Table sc_wfIssues: finishing file (backup_2019-02-03-2005_K1_Webshop_d9806698e8a8-db-table-sc_wfIssues.table.gz - 0.3 KB)
0019.470 (0) Table sc_wfKnownFileList: Total expected rows (approximate): 0
0019.471 (0) Table sc_wfKnownFileList: Total rows added: 0 in 0.00 seconds
0019.472 (0) Table sc_wfKnownFileList: finishing file (backup_2019-02-03-2005_K1_Webshop_d9806698e8a8-db-table-sc_wfKnownFileList.table.gz - 0.3 KB)
0019.474 (0) Table sc_wfLeechers: Total expected rows (approximate): 0
0019.476 (0) Table sc_wfLeechers: Total rows added: 0 in 0.00 seconds
0019.477 (0) Table sc_wfLeechers: finishing file (backup_2019-02-03-2005_K1_Webshop_d9806698e8a8-db-table-sc_wfLeechers.table.gz - 0.3 KB)
0019.479 (0) Table sc_wfLockedOut: Total expected rows (approximate): 0
0019.481 (0) Table sc_wfLockedOut: Total rows added: 0 in 0.00 seconds
0019.481 (0) Table sc_wfLockedOut: finishing file (backup_2019-02-03-2005_K1_Webshop_d9806698e8a8-db-table-sc_wfLockedOut.table.gz - 0.3 KB)
0019.483 (0) Table sc_wfLocs: Total expected rows (approximate): 1
0019.485 (0) Table sc_wfLocs: Total rows added: 1 in 0.00 seconds
0019.486 (0) Table sc_wfLocs: finishing file (backup_2019-02-03-2005_K1_Webshop_d9806698e8a8-db-table-sc_wfLocs.table.gz - 0.5 KB)
0019.496 (0) Table sc_wfLogins: Total expected rows (approximate): 0
0019.498 (0) Table sc_wfLogins: Total rows added: 0 in 0.00 seconds
0019.498 (0) Table sc_wfLogins: finishing file (backup_2019-02-03-2005_K1_Webshop_d9806698e8a8-db-table-sc_wfLogins.table.gz - 0.4 KB)
0019.501 (0) Table sc_wfNet404s: Total expected rows (approximate): 0
0019.502 (0) Table sc_wfNet404s: Total rows added: 0 in 0.00 seconds
0019.502 (0) Table sc_wfNet404s: finishing file (backup_2019-02-03-2005_K1_Webshop_d9806698e8a8-db-table-sc_wfNet404s.table.gz - 0.3 KB)
0019.505 (0) Table sc_wfNotifications: Total expected rows (approximate): 0
0019.506 (0) Table sc_wfNotifications: Total rows added: 0 in 0.00 seconds
0019.506 (0) Table sc_wfNotifications: finishing file (backup_2019-02-03-2005_K1_Webshop_d9806698e8a8-db-table-sc_wfNotifications.table.gz - 0.3 KB)
0019.509 (0) Table sc_wfPendingIssues: Total expected rows (approximate): 0
0019.510 (0) Table sc_wfPendingIssues: Total rows added: 0 in 0.00 seconds
0019.510 (0) Table sc_wfPendingIssues: finishing file (backup_2019-02-03-2005_K1_Webshop_d9806698e8a8-db-table-sc_wfPendingIssues.table.gz - 0.4 KB)
0019.513 (0) Table sc_wfReverseCache: Total expected rows (approximate): 1
0019.514 (0) Table sc_wfReverseCache: Total rows added: 1 in 0.00 seconds
0019.514 (0) Table sc_wfReverseCache: finishing file (backup_2019-02-03-2005_K1_Webshop_d9806698e8a8-db-table-sc_wfReverseCache.table.gz - 0.4 KB)
0019.517 (0) Table sc_wfSNIPCache: Total expected rows (approximate): 0
0019.518 (0) Table sc_wfSNIPCache: Total rows added: 0 in 0.00 seconds
0019.518 (0) Table sc_wfSNIPCache: finishing file (backup_2019-02-03-2005_K1_Webshop_d9806698e8a8-db-table-sc_wfSNIPCache.table.gz - 0.4 KB)
0019.521 (0) Table sc_wfScanners: Total expected rows (approximate): 0
0019.522 (0) Table sc_wfScanners: Total rows added: 0 in 0.00 seconds
0019.522 (0) Table sc_wfScanners: finishing file (backup_2019-02-03-2005_K1_Webshop_d9806698e8a8-db-table-sc_wfScanners.table.gz - 0.3 KB)
0019.526 (0) Table sc_wfStatus: Total expected rows (approximate): 8
0019.527 (0) Table sc_wfStatus: Total rows added: 8 in 0.00 seconds
0019.528 (0) Table sc_wfStatus: finishing file (backup_2019-02-03-2005_K1_Webshop_d9806698e8a8-db-table-sc_wfStatus.table.gz - 0.7 KB)
0019.530 (0) Table sc_wfThrottleLog: Total expected rows (approximate): 0
0019.531 (0) Table sc_wfThrottleLog: Total rows added: 0 in 0.00 seconds
0019.532 (0) Table sc_wfThrottleLog: finishing file (backup_2019-02-03-2005_K1_Webshop_d9806698e8a8-db-table-sc_wfThrottleLog.table.gz - 0.3 KB)
0019.534 (0) Table sc_wfVulnScanners: Total expected rows (approximate): 0
0019.536 (0) Table sc_wfVulnScanners: Total rows added: 0 in 0.00 seconds
0019.537 (0) Table sc_wfVulnScanners: finishing file (backup_2019-02-03-2005_K1_Webshop_d9806698e8a8-db-table-sc_wfVulnScanners.table.gz - 0.3 KB)
0019.539 (0) Table sc_woocommerce_api_keys: Total expected rows (approximate): 0
0019.541 (0) Table sc_woocommerce_api_keys: Total rows added: 1 in 0.00 seconds
0019.541 (0) Table sc_woocommerce_api_keys: finishing file (backup_2019-02-03-2005_K1_Webshop_d9806698e8a8-db-table-sc_woocommerce_api_keys.table.gz - 0.6 KB)
0019.544 (0) Table sc_woocommerce_attribute_taxonomies: Total expected rows (approximate): 3
0019.545 (0) Table sc_woocommerce_attribute_taxonomies: Total rows added: 4 in 0.00 seconds
0019.546 (0) Table sc_woocommerce_attribute_taxonomies: finishing file (backup_2019-02-03-2005_K1_Webshop_d9806698e8a8-db-table-sc_woocommerce_attribute_taxonomies.table.gz - 0.5 KB)
0019.549 (0) Table sc_woocommerce_downloadable_product_permissions: Total expected rows (approximate): 0
0019.550 (0) Table sc_woocommerce_downloadable_product_permissions: Total rows added: 0 in 0.00 seconds
0019.550 (0) Table sc_woocommerce_downloadable_product_permissions: finishing file (backup_2019-02-03-2005_K1_Webshop_d9806698e8a8-db-table-sc_woocommerce_downloadable_product_permissions.table.gz - 0.5 KB)
0019.553 (0) Table sc_woocommerce_log: Total expected rows (approximate): 0
0019.554 (0) Table sc_woocommerce_log: Total rows added: 0 in 0.00 seconds
0019.555 (0) Table sc_woocommerce_log: finishing file (backup_2019-02-03-2005_K1_Webshop_d9806698e8a8-db-table-sc_woocommerce_log.table.gz - 0.4 KB)
0019.557 (0) Table sc_woocommerce_order_items: Total expected rows (approximate): 0
0019.558 (0) Table sc_woocommerce_order_items: Total rows added: 0 in 0.00 seconds
0019.560 (0) Table sc_woocommerce_order_items: finishing file (backup_2019-02-03-2005_K1_Webshop_d9806698e8a8-db-table-sc_woocommerce_order_items.table.gz - 0.3 KB)
0019.562 (0) Table sc_woocommerce_payment_tokens: Total expected rows (approximate): 0
0019.563 (0) Table sc_woocommerce_payment_tokens: Total rows added: 0 in 0.00 seconds
0019.564 (0) Table sc_woocommerce_payment_tokens: finishing file (backup_2019-02-03-2005_K1_Webshop_d9806698e8a8-db-table-sc_woocommerce_payment_tokens.table.gz - 0.4 KB)
0019.566 (0) Table sc_woocommerce_sessions: Total expected rows (approximate): 0
0019.567 (0) Table sc_woocommerce_sessions: Total rows added: 0 in 0.00 seconds
0019.568 (0) Table sc_woocommerce_sessions: finishing file (backup_2019-02-03-2005_K1_Webshop_d9806698e8a8-db-table-sc_woocommerce_sessions.table.gz - 0.4 KB)
0019.570 (0) Table sc_woocommerce_shipping_zone_locations: Total expected rows (approximate): 1
0019.571 (0) Table sc_woocommerce_shipping_zone_locations: Total rows added: 1 in 0.00 seconds
0019.572 (0) Table sc_woocommerce_shipping_zone_locations: finishing file (backup_2019-02-03-2005_K1_Webshop_d9806698e8a8-db-table-sc_woocommerce_shipping_zone_locations.table.gz - 0.4 KB)
0019.596 (0) Table sc_woocommerce_shipping_zone_methods: Total expected rows (approximate): 1
0019.598 (0) Table sc_woocommerce_shipping_zone_methods: Total rows added: 1 in 0.00 seconds
0019.598 (0) Table sc_woocommerce_shipping_zone_methods: finishing file (backup_2019-02-03-2005_K1_Webshop_d9806698e8a8-db-table-sc_woocommerce_shipping_zone_methods.table.gz - 0.4 KB)
0019.602 (0) Table sc_woocommerce_shipping_zones: Total expected rows (approximate): 1
0019.603 (0) Table sc_woocommerce_shipping_zones: Total rows added: 1 in 0.00 seconds
0019.604 (0) Table sc_woocommerce_shipping_zones: finishing file (backup_2019-02-03-2005_K1_Webshop_d9806698e8a8-db-table-sc_woocommerce_shipping_zones.table.gz - 0.4 KB)
0019.606 (0) Table sc_woocommerce_tax_rate_locations: Total expected rows (approximate): 0
0019.607 (0) Table sc_woocommerce_tax_rate_locations: Total rows added: 0 in 0.00 seconds
0019.608 (0) Table sc_woocommerce_tax_rate_locations: finishing file (backup_2019-02-03-2005_K1_Webshop_d9806698e8a8-db-table-sc_woocommerce_tax_rate_locations.table.gz - 0.4 KB)
0019.610 (0) Table sc_woocommerce_tax_rates: Total expected rows (approximate): 84
0019.612 (0) Table sc_woocommerce_tax_rates: Total rows added: 86 in 0.00 seconds
0019.613 (0) Table sc_woocommerce_tax_rates: finishing file (backup_2019-02-03-2005_K1_Webshop_d9806698e8a8-db-table-sc_woocommerce_tax_rates.table.gz - 1.5 KB)
0019.615 (0) backup_2019-02-03-2005_K1_Webshop_d9806698e8a8-db-table-sc_options.table.gz (1/63): adding to final database dump
0019.624 (0) backup_2019-02-03-2005_K1_Webshop_d9806698e8a8-db-table-sc_users.table.gz (2/63): adding to final database dump
0019.625 (0) backup_2019-02-03-2005_K1_Webshop_d9806698e8a8-db-table-sc_usermeta.table.gz (3/63): adding to final database dump
0019.626 (0) backup_2019-02-03-2005_K1_Webshop_d9806698e8a8-db-table-sc_commentmeta.table.gz (4/63): adding to final database dump
0019.626 (0) backup_2019-02-03-2005_K1_Webshop_d9806698e8a8-db-table-sc_comments.table.gz (5/63): adding to final database dump
0019.627 (0) backup_2019-02-03-2005_K1_Webshop_d9806698e8a8-db-table-sc_links.table.gz (6/63): adding to final database dump
0019.628 (0) backup_2019-02-03-2005_K1_Webshop_d9806698e8a8-db-table-sc_postmeta.table.gz (7/63): adding to final database dump
0019.649 (0) backup_2019-02-03-2005_K1_Webshop_d9806698e8a8-db-table-sc_posts.table.gz (8/63): adding to final database dump
0019.673 (0) backup_2019-02-03-2005_K1_Webshop_d9806698e8a8-db-table-sc_term_relationships.table.gz (9/63): adding to final database dump
0019.674 (0) backup_2019-02-03-2005_K1_Webshop_d9806698e8a8-db-table-sc_term_taxonomy.table.gz (10/63): adding to final database dump
0019.675 (0) backup_2019-02-03-2005_K1_Webshop_d9806698e8a8-db-table-sc_termmeta.table.gz (11/63): adding to final database dump
0019.676 (0) backup_2019-02-03-2005_K1_Webshop_d9806698e8a8-db-table-sc_terms.table.gz (12/63): adding to final database dump
0019.677 (0) backup_2019-02-03-2005_K1_Webshop_d9806698e8a8-db-table-sc_woocommerce_order_itemmeta.table.gz (13/63): adding to final database dump
0019.677 (0) backup_2019-02-03-2005_K1_Webshop_d9806698e8a8-db-table-sc_woocommerce_payment_tokenmeta.table.gz (14/63): adding to final database dump
0019.678 (0) backup_2019-02-03-2005_K1_Webshop_d9806698e8a8-db-table-sc_aiowps_events.table.gz (15/63): adding to final database dump
0019.679 (0) backup_2019-02-03-2005_K1_Webshop_d9806698e8a8-db-table-sc_aiowps_failed_logins.table.gz (16/63): adding to final database dump
0019.680 (0) backup_2019-02-03-2005_K1_Webshop_d9806698e8a8-db-table-sc_aiowps_global_meta.table.gz (17/63): adding to final database dump
0019.681 (0) backup_2019-02-03-2005_K1_Webshop_d9806698e8a8-db-table-sc_aiowps_login_activity.table.gz (18/63): adding to final database dump
0019.682 (0) backup_2019-02-03-2005_K1_Webshop_d9806698e8a8-db-table-sc_aiowps_login_lockdown.table.gz (19/63): adding to final database dump
0019.682 (0) backup_2019-02-03-2005_K1_Webshop_d9806698e8a8-db-table-sc_aiowps_permanent_block.table.gz (20/63): adding to final database dump
0019.683 (0) backup_2019-02-03-2005_K1_Webshop_d9806698e8a8-db-table-sc_duplicator_packages.table.gz (21/63): adding to final database dump
0019.684 (0) backup_2019-02-03-2005_K1_Webshop_d9806698e8a8-db-table-sc_sm_advanced_search_temp.table.gz (22/63): adding to final database dump
0019.685 (0) backup_2019-02-03-2005_K1_Webshop_d9806698e8a8-db-table-sc_smake_products.table.gz (23/63): adding to final database dump
0019.685 (0) backup_2019-02-03-2005_K1_Webshop_d9806698e8a8-db-table-sc_smush_dir_images.table.gz (24/63): adding to final database dump
0019.686 (0) backup_2019-02-03-2005_K1_Webshop_d9806698e8a8-db-table-sc_wc_download_log.table.gz (25/63): adding to final database dump
0019.686 (0) backup_2019-02-03-2005_K1_Webshop_d9806698e8a8-db-table-sc_wc_webhooks.table.gz (26/63): adding to final database dump
0019.688 (0) backup_2019-02-03-2005_K1_Webshop_d9806698e8a8-db-table-sc_wfBadLeechers.table.gz (27/63): adding to final database dump
0019.688 (0) backup_2019-02-03-2005_K1_Webshop_d9806698e8a8-db-table-sc_wfBlockedCommentLog.table.gz (28/63): adding to final database dump
0019.689 (0) backup_2019-02-03-2005_K1_Webshop_d9806698e8a8-db-table-sc_wfBlockedIPLog.table.gz (29/63): adding to final database dump
0019.689 (0) backup_2019-02-03-2005_K1_Webshop_d9806698e8a8-db-table-sc_wfBlocks.table.gz (30/63): adding to final database dump
0019.690 (0) backup_2019-02-03-2005_K1_Webshop_d9806698e8a8-db-table-sc_wfBlocksAdv.table.gz (31/63): adding to final database dump
0019.691 (0) backup_2019-02-03-2005_K1_Webshop_d9806698e8a8-db-table-sc_wfConfig.table.gz (32/63): adding to final database dump
0019.692 (0) backup_2019-02-03-2005_K1_Webshop_d9806698e8a8-db-table-sc_wfCrawlers.table.gz (33/63): adding to final database dump
0019.693 (0) backup_2019-02-03-2005_K1_Webshop_d9806698e8a8-db-table-sc_wfFileMods.table.gz (34/63): adding to final database dump
0019.693 (0) backup_2019-02-03-2005_K1_Webshop_d9806698e8a8-db-table-sc_wfHits.table.gz (35/63): adding to final database dump
0019.694 (0) backup_2019-02-03-2005_K1_Webshop_d9806698e8a8-db-table-sc_wfHoover.table.gz (36/63): adding to final database dump
0019.695 (0) backup_2019-02-03-2005_K1_Webshop_d9806698e8a8-db-table-sc_wfIssues.table.gz (37/63): adding to final database dump
0019.696 (0) backup_2019-02-03-2005_K1_Webshop_d9806698e8a8-db-table-sc_wfKnownFileList.table.gz (38/63): adding to final database dump
0019.696 (0) backup_2019-02-03-2005_K1_Webshop_d9806698e8a8-db-table-sc_wfLeechers.table.gz (39/63): adding to final database dump
0019.697 (0) backup_2019-02-03-2005_K1_Webshop_d9806698e8a8-db-table-sc_wfLockedOut.table.gz (40/63): adding to final database dump
0019.697 (0) backup_2019-02-03-2005_K1_Webshop_d9806698e8a8-db-table-sc_wfLocs.table.gz (41/63): adding to final database dump
0019.698 (0) backup_2019-02-03-2005_K1_Webshop_d9806698e8a8-db-table-sc_wfLogins.table.gz (42/63): adding to final database dump
0019.699 (0) backup_2019-02-03-2005_K1_Webshop_d9806698e8a8-db-table-sc_wfNet404s.table.gz (43/63): adding to final database dump
0019.700 (0) backup_2019-02-03-2005_K1_Webshop_d9806698e8a8-db-table-sc_wfNotifications.table.gz (44/63): adding to final database dump
0019.700 (0) backup_2019-02-03-2005_K1_Webshop_d9806698e8a8-db-table-sc_wfPendingIssues.table.gz (45/63): adding to final database dump
0019.701 (0) backup_2019-02-03-2005_K1_Webshop_d9806698e8a8-db-table-sc_wfReverseCache.table.gz (46/63): adding to final database dump
0019.701 (0) backup_2019-02-03-2005_K1_Webshop_d9806698e8a8-db-table-sc_wfSNIPCache.table.gz (47/63): adding to final database dump
0019.702 (0) backup_2019-02-03-2005_K1_Webshop_d9806698e8a8-db-table-sc_wfScanners.table.gz (48/63): adding to final database dump
0019.703 (0) backup_2019-02-03-2005_K1_Webshop_d9806698e8a8-db-table-sc_wfStatus.table.gz (49/63): adding to final database dump
0019.704 (0) backup_2019-02-03-2005_K1_Webshop_d9806698e8a8-db-table-sc_wfThrottleLog.table.gz (50/63): adding to final database dump
0019.705 (0) backup_2019-02-03-2005_K1_Webshop_d9806698e8a8-db-table-sc_wfVulnScanners.table.gz (51/63): adding to final database dump
0019.705 (0) backup_2019-02-03-2005_K1_Webshop_d9806698e8a8-db-table-sc_woocommerce_api_keys.table.gz (52/63): adding to final database dump
0019.706 (0) backup_2019-02-03-2005_K1_Webshop_d9806698e8a8-db-table-sc_woocommerce_attribute_taxonomies.table.gz (53/63): adding to final database dump
0019.706 (0) backup_2019-02-03-2005_K1_Webshop_d9806698e8a8-db-table-sc_woocommerce_downloadable_product_permissions.table.gz (54/63): adding to final database dump
0019.709 (0) backup_2019-02-03-2005_K1_Webshop_d9806698e8a8-db-table-sc_woocommerce_log.table.gz (55/63): adding to final database dump
0019.709 (0) backup_2019-02-03-2005_K1_Webshop_d9806698e8a8-db-table-sc_woocommerce_order_items.table.gz (56/63): adding to final database dump
0019.710 (0) backup_2019-02-03-2005_K1_Webshop_d9806698e8a8-db-table-sc_woocommerce_payment_tokens.table.gz (57/63): adding to final database dump
0019.711 (0) backup_2019-02-03-2005_K1_Webshop_d9806698e8a8-db-table-sc_woocommerce_sessions.table.gz (58/63): adding to final database dump
0019.712 (0) backup_2019-02-03-2005_K1_Webshop_d9806698e8a8-db-table-sc_woocommerce_shipping_zone_locations.table.gz (59/63): adding to final database dump
0019.712 (0) backup_2019-02-03-2005_K1_Webshop_d9806698e8a8-db-table-sc_woocommerce_shipping_zone_methods.table.gz (60/63): adding to final database dump
0019.713 (0) backup_2019-02-03-2005_K1_Webshop_d9806698e8a8-db-table-sc_woocommerce_shipping_zones.table.gz (61/63): adding to final database dump
0019.713 (0) backup_2019-02-03-2005_K1_Webshop_d9806698e8a8-db-table-sc_woocommerce_tax_rate_locations.table.gz (62/63): adding to final database dump
0019.714 (0) backup_2019-02-03-2005_K1_Webshop_d9806698e8a8-db-table-sc_woocommerce_tax_rates.table.gz (63/63): adding to final database dump
0019.715 (0) backup_2019-02-03-2005_K1_Webshop_d9806698e8a8-db.gz: finished writing out complete database file (312 KB)
0019.722 (0) Total database tables backed up: 63 (backup_2019-02-03-2005_K1_Webshop_d9806698e8a8-db.gz, size: 333184, sha256)
0019.726 (0) backup_2019-02-03-2005_K1_Webshop_d9806698e8a8-plugins.zip: plugins: This file has not yet been successfully uploaded: will queue
0019.727 (0) backup_2019-02-03-2005_K1_Webshop_d9806698e8a8-themes.zip: themes: This file has not yet been successfully uploaded: will queue
0019.728 (0) backup_2019-02-03-2005_K1_Webshop_d9806698e8a8-uploads.zip: uploads: This file has not yet been successfully uploaded: will queue
0019.729 (0) backup_2019-02-03-2005_K1_Webshop_d9806698e8a8-others.zip: others: This file has not yet been successfully uploaded: will queue
0019.729 (0) backup_2019-02-03-2005_K1_Webshop_d9806698e8a8-db.gz: db: This file has not yet been successfully uploaded: will queue
0019.730 (0) Saving backup history. Total backup size: 80.7 MB
0019.732 (0) Requesting upload of the files that have not yet been successfully uploaded (5)
0019.734 (0) Cloud backup selection (1/1): googledrive with instance (1/1) (last)
0019.735 (0) Beginning dispatch of backup to remote (googledrive) (instance identifier s-9595888c1f117f38192ced0b3fd9413c)
0022.526 (0) Google Drive quota usage: used=18280.2 MB, total=102400 MB, available=84119.8 MB
0022.595 (0) backup_2019-02-03-2005_K1_Webshop_d9806698e8a8-plugins.zip: Attempting to upload to Google Drive (into folder id: 195gwCKjmCU5z-VsNUZEISas1z2y9fdcu)
0023.097 (0) Googledrive chunked upload: 1.9 % uploaded (1048576)
0023.270 (0) Googledrive chunked upload: 3.8 % uploaded (2097152)
0023.398 (0) Googledrive chunked upload: 5.8 % uploaded (3145728)
0023.542 (0) Googledrive chunked upload: 7.7 % uploaded (4194304)
0023.677 (0) Googledrive chunked upload: 9.6 % uploaded (5242880)
0023.867 (0) Googledrive chunked upload: 11.5 % uploaded (6291456)
0024.005 (0) Googledrive chunked upload: 13.5 % uploaded (7340032)
0024.164 (0) Googledrive chunked upload: 15.4 % uploaded (8388608)
0025.444 (0) Googledrive chunked upload: 17.3 % uploaded (9437184)
0025.616 (0) Googledrive chunked upload: 19.2 % uploaded (10485760)
0025.766 (0) Googledrive chunked upload: 21.2 % uploaded (11534336)
0025.913 (0) Googledrive chunked upload: 23.1 % uploaded (12582912)
0026.077 (0) Googledrive chunked upload: 25 % uploaded (13631488)
0026.217 (0) Googledrive chunked upload: 26.9 % uploaded (14680064)
0026.406 (0) Googledrive chunked upload: 28.9 % uploaded (15728640)
0026.575 (0) Googledrive chunked upload: 30.8 % uploaded (16777216)
0026.786 (0) Googledrive chunked upload: 32.7 % uploaded (17825792)
0026.929 (0) Googledrive chunked upload: 34.6 % uploaded (18874368)
0027.127 (0) Googledrive chunked upload: 36.6 % uploaded (19922944)
0027.286 (0) Googledrive chunked upload: 38.5 % uploaded (20971520)
0027.469 (0) Googledrive chunked upload: 40.4 % uploaded (22020096)
0027.636 (0) Googledrive chunked upload: 42.3 % uploaded (23068672)
0027.810 (0) Googledrive chunked upload: 44.3 % uploaded (24117248)
0027.961 (0) Googledrive chunked upload: 46.2 % uploaded (25165824)
0028.128 (0) Googledrive chunked upload: 48.1 % uploaded (26214400)
0028.273 (0) Googledrive chunked upload: 50 % uploaded (27262976)
0028.428 (0) Googledrive chunked upload: 51.9 % uploaded (28311552)
0028.577 (0) Googledrive chunked upload: 53.9 % uploaded (29360128)
0028.777 (0) Googledrive chunked upload: 55.8 % uploaded (30408704)
0028.946 (0) Googledrive chunked upload: 57.7 % uploaded (31457280)
0029.083 (0) Googledrive chunked upload: 59.6 % uploaded (32505856)
0029.217 (0) Googledrive chunked upload: 61.6 % uploaded (33554432)
0029.487 (0) Googledrive chunked upload: 63.5 % uploaded (34603008)
0029.727 (0) Googledrive chunked upload: 65.4 % uploaded (35651584)
0029.874 (0) Googledrive chunked upload: 67.3 % uploaded (36700160)
0030.036 (0) Googledrive chunked upload: 69.3 % uploaded (37748736)
0030.329 (0) Googledrive chunked upload: 71.2 % uploaded (38797312)
0030.514 (0) Googledrive chunked upload: 73.1 % uploaded (39845888)
0030.779 (0) Googledrive chunked upload: 75 % uploaded (40894464)
0030.955 (0) Googledrive chunked upload: 77 % uploaded (41943040)
0031.126 (0) Googledrive chunked upload: 78.9 % uploaded (42991616)
0031.326 (0) Googledrive chunked upload: 80.8 % uploaded (44040192)
0031.529 (0) Googledrive chunked upload: 82.7 % uploaded (45088768)
0031.920 (0) Googledrive chunked upload: 84.7 % uploaded (46137344)
0032.195 (0) Googledrive chunked upload: 86.6 % uploaded (47185920)
0032.365 (0) Googledrive chunked upload: 88.5 % uploaded (48234496)
0032.526 (0) Googledrive chunked upload: 90.4 % uploaded (49283072)
0033.388 (0) Googledrive chunked upload: 92.4 % uploaded (50331648)
0033.694 (0) Googledrive chunked upload: 94.3 % uploaded (51380224)
0033.833 (0) Googledrive chunked upload: 96.2 % uploaded (52428800)
0033.989 (0) Googledrive chunked upload: 98.1 % uploaded (53477376)
0035.726 (0) Googledrive chunked upload: 100 % uploaded (53477376)
0035.729 (0) OK: Archive backup_2019-02-03-2005_K1_Webshop_d9806698e8a8-plugins.zip uploaded to Google Drive in 13.13 seconds
0035.730 (0) Recording as successfully uploaded: backup_2019-02-03-2005_K1_Webshop_d9806698e8a8-plugins.zip
0035.744 (0) Deleting local file: backup_2019-02-03-2005_K1_Webshop_d9806698e8a8-plugins.zip: OK
0036.006 (0) Google Drive quota usage: used=18332.2 MB, total=102400 MB, available=84067.8 MB
0036.034 (0) backup_2019-02-03-2005_K1_Webshop_d9806698e8a8-themes.zip: Attempting to upload to Google Drive (into folder id: 195gwCKjmCU5z-VsNUZEISas1z2y9fdcu)
0036.835 (0) Googledrive chunked upload: 12.1 % uploaded (1048576)
0037.094 (0) Googledrive chunked upload: 24.1 % uploaded (2097152)
0037.325 (0) Googledrive chunked upload: 36.2 % uploaded (3145728)
0037.566 (0) Googledrive chunked upload: 48.3 % uploaded (4194304)
0037.887 (0) Googledrive chunked upload: 60.3 % uploaded (5242880)
0038.121 (0) Googledrive chunked upload: 72.4 % uploaded (6291456)
0038.469 (0) Googledrive chunked upload: 84.5 % uploaded (7340032)
0038.632 (0) Googledrive chunked upload: 96.5 % uploaded (8388608)
0039.683 (0) Googledrive chunked upload: 100 % uploaded (8388608)
0039.686 (0) OK: Archive backup_2019-02-03-2005_K1_Webshop_d9806698e8a8-themes.zip uploaded to Google Drive in 3.65 seconds
0039.688 (0) Recording as successfully uploaded: backup_2019-02-03-2005_K1_Webshop_d9806698e8a8-themes.zip
0039.690 (0) Deleting local file: backup_2019-02-03-2005_K1_Webshop_d9806698e8a8-themes.zip: OK
0039.937 (0) Google Drive quota usage: used=18340.4 MB, total=102400 MB, available=84059.6 MB
0040.000 (0) backup_2019-02-03-2005_K1_Webshop_d9806698e8a8-uploads.zip: Attempting to upload to Google Drive (into folder id: 195gwCKjmCU5z-VsNUZEISas1z2y9fdcu)
0040.568 (0) Googledrive chunked upload: 5.8 % uploaded (1048576)
0040.721 (0) Googledrive chunked upload: 11.7 % uploaded (2097152)
0040.856 (0) Googledrive chunked upload: 17.5 % uploaded (3145728)
0041.010 (0) Googledrive chunked upload: 23.3 % uploaded (4194304)
0041.221 (0) Googledrive chunked upload: 29.2 % uploaded (5242880)
0041.384 (0) Googledrive chunked upload: 35 % uploaded (6291456)
0041.580 (0) Googledrive chunked upload: 40.9 % uploaded (7340032)
0041.757 (0) Googledrive chunked upload: 46.7 % uploaded (8388608)
0041.935 (0) Googledrive chunked upload: 52.5 % uploaded (9437184)
0042.243 (0) Googledrive chunked upload: 58.4 % uploaded (10485760)
0042.467 (0) Googledrive chunked upload: 64.2 % uploaded (11534336)
0042.616 (0) Googledrive chunked upload: 70 % uploaded (12582912)
0042.776 (0) Googledrive chunked upload: 75.9 % uploaded (13631488)
0042.925 (0) Googledrive chunked upload: 81.7 % uploaded (14680064)
0043.275 (0) Googledrive chunked upload: 87.5 % uploaded (15728640)
0043.466 (0) Googledrive chunked upload: 93.4 % uploaded (16777216)
0043.734 (0) Googledrive chunked upload: 99.2 % uploaded (17825792)
0044.966 (0) Googledrive chunked upload: 100 % uploaded (17825792)
0044.970 (0) OK: Archive backup_2019-02-03-2005_K1_Webshop_d9806698e8a8-uploads.zip uploaded to Google Drive in 4.97 seconds
0044.971 (0) Recording as successfully uploaded: backup_2019-02-03-2005_K1_Webshop_d9806698e8a8-uploads.zip
0044.976 (0) Deleting local file: backup_2019-02-03-2005_K1_Webshop_d9806698e8a8-uploads.zip: OK
0045.290 (0) Google Drive quota usage: used=18357.6 MB, total=102400 MB, available=84042.4 MB
0045.316 (0) backup_2019-02-03-2005_K1_Webshop_d9806698e8a8-others.zip: Attempting to upload to Google Drive (into folder id: 195gwCKjmCU5z-VsNUZEISas1z2y9fdcu)
0045.811 (0) Googledrive chunked upload: 33.4 % uploaded (1048576)
0045.995 (0) Googledrive chunked upload: 66.9 % uploaded (2097152)
0047.341 (0) Googledrive chunked upload: 100 % uploaded (2097152)
0047.344 (0) OK: Archive backup_2019-02-03-2005_K1_Webshop_d9806698e8a8-others.zip uploaded to Google Drive in 2.03 seconds
0047.345 (0) Recording as successfully uploaded: backup_2019-02-03-2005_K1_Webshop_d9806698e8a8-others.zip
0047.346 (0) Deleting local file: backup_2019-02-03-2005_K1_Webshop_d9806698e8a8-others.zip: OK
0047.586 (0) Google Drive quota usage: used=18360.6 MB, total=102400 MB, available=84039.4 MB
0047.632 (0) backup_2019-02-03-2005_K1_Webshop_d9806698e8a8-db.gz: Attempting to upload to Google Drive (into folder id: 195gwCKjmCU5z-VsNUZEISas1z2y9fdcu)
0049.330 (0) Googledrive chunked upload: 100 % uploaded
0049.333 (0) OK: Archive backup_2019-02-03-2005_K1_Webshop_d9806698e8a8-db.gz uploaded to Google Drive in 1.7 seconds
0049.334 (0) Recording as successfully uploaded: backup_2019-02-03-2005_K1_Webshop_d9806698e8a8-db.gz
0049.337 (0) Deleting local file: backup_2019-02-03-2005_K1_Webshop_d9806698e8a8-db.gz: OK
0049.339 (0) Retain: beginning examination of existing backup sets; user setting: retain_files=2, retain_db=2
0049.340 (0) Number of backup sets in history: 2; groups (db): 1
0049.341 (0) Examining (for databases) backup set with group_id=0, nonce=d9806698e8a8, datestamp=1549220758 (Feb 03 2019 19:05:58)
0049.342 (0) This backup set is the backup set just made, so will not be deleted.
0049.342 (0) Examining (for databases) backup set with group_id=0, nonce=238fa56d2f16, datestamp=1548941427 (Jan 31 2019 13:30:27)
0049.342 (0) This backup set remains non-empty (f=1/d=1); will retain in history
0049.342 (0) Number of backup sets in history: 2; groups (files): 1
0049.344 (0) Examining (for files) backup set with nonce=d9806698e8a8, datestamp=1549220758 (Feb 03 2019 19:05:58)
0049.344 (0) This backup set is the backup set just made, so will not be deleted.
0049.344 (0) This backup set is the backup set just made, so will not be deleted.
0049.344 (0) This backup set is the backup set just made, so will not be deleted.
0049.345 (0) This backup set is the backup set just made, so will not be deleted.
0049.345 (0) This backup set remains non-empty (f=1/d=1); will retain in history
0049.345 (0) Examining (for files) backup set with nonce=238fa56d2f16, datestamp=1548941427 (Jan 31 2019 13:30:27)
0049.345 (0) This backup set remains non-empty (f=1/d=1); will retain in history
0049.345 (0) Retain: saving new backup history (sets now: 2) and finishing retain operation
0049.348 (0) Resume backup (d9806698e8a8, 0): finish run
0049.351 (0) Decremented the semaphore (fd) by 1
0049.353 (0) Semaphore (fd) unlocked
0049.354 (0) There were no errors in the uploads, so the 'resume' event (1) is being unscheduled
0049.356 (0) The backup apparently succeeded and is now complete
0049.359 (0) Sending email ('Dateien und Datenbank (Volle Sicherung)') report (attachments: 0, size: 61.8 KB) to: huett...
0049.475 (0) Die Sicherung war anscheinend erfolgreich und ist nun vollständig
